<?xml version="1.0" encoding="UTF-8" standalone="no"?>
<graphml xmlns="http://graphml.graphdrawing.org/xmlns" xmlns:java="http://www.yworks.com/xml/yfiles-common/1.0/java" xmlns:sys="http://www.yworks.com/xml/yfiles-common/markup/primitives/2.0" xmlns:x="http://www.yworks.com/xml/yfiles-common/markup/2.0" xmlns:xsi="http://www.w3.org/2001/XMLSchema-instance" xmlns:y="http://www.yworks.com/xml/graphml" xmlns:yed="http://www.yworks.com/xml/yed/3" xsi:schemaLocation="http://graphml.graphdrawing.org/xmlns http://www.yworks.com/xml/schema/graphml/1.1/ygraphml.xsd">
  <!--Created by yEd 3.19-->
  <key attr.name="Description" attr.type="string" for="graph" id="d0"/>
  <key for="port" id="d1" yfiles.type="portgraphics"/>
  <key for="port" id="d2" yfiles.type="portgeometry"/>
  <key for="port" id="d3" yfiles.type="portuserdata"/>
  <key attr.name="url" attr.type="string" for="node" id="d4"/>
  <key attr.name="description" attr.type="string" for="node" id="d5"/>
  <key for="node" id="d6" yfiles.type="nodegraphics"/>
  <key for="graphml" id="d7" yfiles.type="resources"/>
  <key attr.name="url" attr.type="string" for="edge" id="d8"/>
  <key attr.name="description" attr.type="string" for="edge" id="d9"/>
  <key for="edge" id="d10" yfiles.type="edgegraphics"/>
  <graph edgedefault="directed" id="G">
    <data key="d0"/>
    <node id="n0" yfiles.foldertype="group">
      <data key="d4" xml:space="preserve"/>
      <data key="d5"/>
      <data key="d6">
        <y:ProxyAutoBoundsNode>
          <y:Realizers active="0">
            <y:GroupNode>
              <y:Geometry height="531.37646484375" width="355.0" x="1038.0" y="106.62353515625"/>
              <y:Fill color="#F5F5F5" transparent="false"/>
              <y:BorderStyle color="#000000" type="dashed" width="1.0"/>
              <y:NodeLabel alignment="right" autoSizePolicy="node_width" backgroundColor="#EBEBEB" borderDistance="0.0" fontFamily="Dialog" fontSize="15" fontStyle="plain" hasLineColor="false" height="22.37646484375" horizontalTextPosition="center" iconTextGap="4" modelName="internal" modelPosition="t" textColor="#000000" verticalTextPosition="bottom" visible="true" width="355.0" x="0.0" xml:space="preserve" y="0.0">MAIN REPO</y:NodeLabel>
              <y:Shape type="roundrectangle"/>
              <y:State closed="false" closedHeight="50.0" closedWidth="50.0" innerGraphDisplayEnabled="false"/>
              <y:Insets bottom="15" bottomF="15.0" left="15" leftF="15.0" right="15" rightF="15.0" top="15" topF="15.0"/>
              <y:BorderInsets bottom="0" bottomF="0.0" left="0" leftF="0.0" right="125" rightF="125.0" top="159" topF="159.0"/>
            </y:GroupNode>
            <y:GroupNode>
              <y:Geometry height="50.0" width="50.0" x="0.0" y="60.0"/>
              <y:Fill color="#F5F5F5" transparent="false"/>
              <y:BorderStyle color="#000000" type="dashed" width="1.0"/>
              <y:NodeLabel alignment="right" autoSizePolicy="node_width" backgroundColor="#EBEBEB" borderDistance="0.0" fontFamily="Dialog" fontSize="15" fontStyle="plain" hasLineColor="false" height="22.37646484375" horizontalTextPosition="center" iconTextGap="4" modelName="internal" modelPosition="t" textColor="#000000" verticalTextPosition="bottom" visible="true" width="59.02685546875" x="-4.513427734375" xml:space="preserve" y="0.0">Folder 1</y:NodeLabel>
              <y:Shape type="roundrectangle"/>
              <y:State closed="true" closedHeight="50.0" closedWidth="50.0" innerGraphDisplayEnabled="false"/>
              <y:Insets bottom="5" bottomF="5.0" left="5" leftF="5.0" right="5" rightF="5.0" top="5" topF="5.0"/>
              <y:BorderInsets bottom="0" bottomF="0.0" left="0" leftF="0.0" right="0" rightF="0.0" top="0" topF="0.0"/>
            </y:GroupNode>
          </y:Realizers>
        </y:ProxyAutoBoundsNode>
      </data>
      <graph edgedefault="directed" id="n0:">
        <node id="n0::n0">
          <data key="d6">
            <y:GenericNode configuration="com.yworks.flowchart.process">
              <y:Geometry height="80.0" width="200.0" x="1053.0" y="463.0"/>
              <y:Fill color="#00FF00" color2="#FFFFFF" transparent="false"/>
              <y:BorderStyle color="#000000" type="line" width="2.0"/>
              <y:NodeLabel alignment="center" autoSizePolicy="content" fontFamily="Arial" fontSize="12" fontStyle="plain" hasBackgroundColor="false" hasLineColor="false" height="17.40625" horizontalTextPosition="center" iconTextGap="4" modelName="custom" textColor="#000000" verticalTextPosition="bottom" visible="true" width="109.943359375" x="45.0283203125" xml:space="preserve" y="31.296875">BASIC 'DO' BLOCK<y:LabelModel><y:SmartNodeLabelModel distance="4.0"/></y:LabelModel><y:ModelParameter><y:SmartNodeLabelModelParameter labelRatioX="0.0" labelRatioY="0.0" nodeRatioX="0.0" nodeRatioY="0.0" offsetX="0.0" offsetY="0.0" upX="0.0" upY="-1.0"/></y:ModelParameter></y:NodeLabel>
            </y:GenericNode>
          </data>
        </node>
        <node id="n0::n1">
          <data key="d6">
            <y:GenericNode configuration="com.yworks.flowchart.process">
              <y:Geometry height="80.0" width="200.0" x="1053.0" y="383.0"/>
              <y:Fill color="#00FF00" color2="#FFFFFF" transparent="false"/>
              <y:BorderStyle color="#000000" type="line" width="2.0"/>
              <y:NodeLabel alignment="center" autoSizePolicy="content" fontFamily="Arial" fontSize="12" fontStyle="plain" hasBackgroundColor="false" hasLineColor="false" height="17.40625" horizontalTextPosition="center" iconTextGap="4" modelName="custom" textColor="#000000" verticalTextPosition="bottom" visible="true" width="109.943359375" x="45.0283203125" xml:space="preserve" y="31.296875">BASIC 'DO' BLOCK<y:LabelModel><y:SmartNodeLabelModel distance="4.0"/></y:LabelModel><y:ModelParameter><y:SmartNodeLabelModelParameter labelRatioX="0.0" labelRatioY="0.0" nodeRatioX="0.0" nodeRatioY="0.0" offsetX="0.0" offsetY="0.0" upX="0.0" upY="-1.0"/></y:ModelParameter></y:NodeLabel>
            </y:GenericNode>
          </data>
        </node>
        <node id="n0::n2">
          <data key="d6">
            <y:GenericNode configuration="com.yworks.flowchart.process">
              <y:Geometry height="80.0" width="200.0" x="1053.0" y="303.0"/>
              <y:Fill color="#00FF00" color2="#FFFFFF" transparent="false"/>
              <y:BorderStyle color="#000000" type="line" width="2.0"/>
              <y:NodeLabel alignment="center" autoSizePolicy="content" fontFamily="Arial" fontSize="12" fontStyle="plain" hasBackgroundColor="false" hasLineColor="false" height="17.40625" horizontalTextPosition="center" iconTextGap="4" modelName="custom" textColor="#000000" verticalTextPosition="bottom" visible="true" width="109.943359375" x="45.0283203125" xml:space="preserve" y="31.296875">BASIC 'DO' BLOCK<y:LabelModel><y:SmartNodeLabelModel distance="4.0"/></y:LabelModel><y:ModelParameter><y:SmartNodeLabelModelParameter labelRatioX="0.0" labelRatioY="0.0" nodeRatioX="0.0" nodeRatioY="0.0" offsetX="0.0" offsetY="0.0" upX="0.0" upY="-1.0"/></y:ModelParameter></y:NodeLabel>
            </y:GenericNode>
          </data>
        </node>
        <node id="n0::n3">
          <data key="d6">
            <y:GenericNode configuration="com.yworks.flowchart.process">
              <y:Geometry height="80.0" width="200.0" x="1053.0" y="543.0"/>
              <y:Fill color="#FFFF00" color2="#FFFFFF" transparent="false"/>
              <y:BorderStyle color="#000000" type="line" width="2.0"/>
              <y:NodeLabel alignment="center" autoSizePolicy="content" fontFamily="Arial" fontSize="12" fontStyle="plain" hasBackgroundColor="false" hasLineColor="false" height="17.40625" horizontalTextPosition="center" iconTextGap="4" modelName="custom" textColor="#000000" verticalTextPosition="bottom" visible="true" width="109.943359375" x="45.0283203125" xml:space="preserve" y="31.296875">BASIC 'DO' BLOCK<y:LabelModel><y:SmartNodeLabelModel distance="4.0"/></y:LabelModel><y:ModelParameter><y:SmartNodeLabelModelParameter labelRatioX="0.0" labelRatioY="0.0" nodeRatioX="0.0" nodeRatioY="0.0" offsetX="0.0" offsetY="0.0" upX="0.0" upY="-1.0"/></y:ModelParameter></y:NodeLabel>
            </y:GenericNode>
          </data>
        </node>
      </graph>
    </node>
    <node id="n1" yfiles.foldertype="group">
      <data key="d4" xml:space="preserve"/>
      <data key="d5"/>
      <data key="d6">
        <y:ProxyAutoBoundsNode>
          <y:Realizers active="0">
            <y:GroupNode>
              <y:Geometry height="531.37646484375" width="477.0" x="222.0" y="106.62353515625"/>
              <y:Fill color="#F5F5F5" transparent="false"/>
              <y:BorderStyle color="#000000" type="dashed" width="1.0"/>
              <y:NodeLabel alignment="right" autoSizePolicy="node_width" backgroundColor="#EBEBEB" borderDistance="0.0" fontFamily="Dialog" fontSize="15" fontStyle="plain" hasLineColor="false" height="22.37646484375" horizontalTextPosition="center" iconTextGap="4" modelName="internal" modelPosition="t" textColor="#000000" verticalTextPosition="bottom" visible="true" width="477.0" x="0.0" xml:space="preserve" y="0.0">FORK</y:NodeLabel>
              <y:Shape type="roundrectangle"/>
              <y:State closed="false" closedHeight="50.0" closedWidth="50.0" innerGraphDisplayEnabled="false"/>
              <y:Insets bottom="15" bottomF="15.0" left="15" leftF="15.0" right="15" rightF="15.0" top="15" topF="15.0"/>
              <y:BorderInsets bottom="0" bottomF="0.0" left="0" leftF="0.0" right="47" rightF="47.0" top="73" topF="73.0"/>
            </y:GroupNode>
            <y:GroupNode>
              <y:Geometry height="50.0" width="50.0" x="0.0" y="60.0"/>
              <y:Fill color="#F5F5F5" transparent="false"/>
              <y:BorderStyle color="#000000" type="dashed" width="1.0"/>
              <y:NodeLabel alignment="right" autoSizePolicy="node_width" backgroundColor="#EBEBEB" borderDistance="0.0" fontFamily="Dialog" fontSize="15" fontStyle="plain" hasLineColor="false" height="22.37646484375" horizontalTextPosition="center" iconTextGap="4" modelName="internal" modelPosition="t" textColor="#000000" verticalTextPosition="bottom" visible="true" width="59.02685546875" x="-4.513427734375" xml:space="preserve" y="0.0">Folder 2</y:NodeLabel>
              <y:Shape type="roundrectangle"/>
              <y:State closed="true" closedHeight="50.0" closedWidth="50.0" innerGraphDisplayEnabled="false"/>
              <y:Insets bottom="5" bottomF="5.0" left="5" leftF="5.0" right="5" rightF="5.0" top="5" topF="5.0"/>
              <y:BorderInsets bottom="0" bottomF="0.0" left="0" leftF="0.0" right="0" rightF="0.0" top="0" topF="0.0"/>
            </y:GroupNode>
          </y:Realizers>
        </y:ProxyAutoBoundsNode>
      </data>
      <graph edgedefault="directed" id="n1:">
        <node id="n1::n0">
          <data key="d6">
            <y:GenericNode configuration="com.yworks.flowchart.process">
              <y:Geometry height="80.0" width="200.0" x="437.0" y="543.0"/>
              <y:Fill color="#FFFF00" color2="#FFFFFF" transparent="false"/>
              <y:BorderStyle color="#000000" type="line" width="2.0"/>
              <y:NodeLabel alignment="center" autoSizePolicy="content" fontFamily="Arial" fontSize="12" fontStyle="plain" hasBackgroundColor="false" hasLineColor="false" height="17.40625" horizontalTextPosition="center" iconTextGap="4" modelName="custom" textColor="#000000" verticalTextPosition="bottom" visible="true" width="109.943359375" x="45.0283203125" xml:space="preserve" y="31.296875">BASIC 'DO' BLOCK<y:LabelModel><y:SmartNodeLabelModel distance="4.0"/></y:LabelModel><y:ModelParameter><y:SmartNodeLabelModelParameter labelRatioX="0.0" labelRatioY="0.0" nodeRatioX="0.0" nodeRatioY="0.0" offsetX="0.0" offsetY="0.0" upX="0.0" upY="-1.0"/></y:ModelParameter></y:NodeLabel>
            </y:GenericNode>
          </data>
        </node>
        <node id="n1::n1">
          <data key="d6">
            <y:GenericNode configuration="com.yworks.flowchart.process">
              <y:Geometry height="80.0" width="200.0" x="237.0" y="463.0"/>
              <y:Fill color="#FFFFFF" color2="#FFFFFF" transparent="false"/>
              <y:BorderStyle color="#000000" type="line" width="2.0"/>
              <y:NodeLabel alignment="center" autoSizePolicy="content" fontFamily="Arial" fontSize="12" fontStyle="plain" hasBackgroundColor="false" hasLineColor="false" height="17.40625" horizontalTextPosition="center" iconTextGap="4" modelName="custom" textColor="#000000" verticalTextPosition="bottom" visible="true" width="109.943359375" x="45.0283203125" xml:space="preserve" y="31.296875">BASIC 'DO' BLOCK<y:LabelModel><y:SmartNodeLabelModel distance="4.0"/></y:LabelModel><y:ModelParameter><y:SmartNodeLabelModelParameter labelRatioX="0.0" labelRatioY="0.0" nodeRatioX="0.0" nodeRatioY="0.0" offsetX="0.0" offsetY="0.0" upX="0.0" upY="-1.0"/></y:ModelParameter></y:NodeLabel>
            </y:GenericNode>
          </data>
        </node>
        <node id="n1::n2">
          <data key="d6">
            <y:GenericNode configuration="com.yworks.flowchart.process">
              <y:Geometry height="80.0" width="200.0" x="437.0" y="297.0"/>
              <y:Fill color="#00CCFF" color2="#FFFFFF" transparent="false"/>
              <y:BorderStyle color="#000000" type="line" width="2.0"/>
              <y:NodeLabel alignment="center" autoSizePolicy="content" fontFamily="Arial" fontSize="12" fontStyle="plain" hasBackgroundColor="false" hasLineColor="false" height="17.40625" horizontalTextPosition="center" iconTextGap="4" modelName="custom" textColor="#000000" verticalTextPosition="bottom" visible="true" width="109.943359375" x="45.0283203125" xml:space="preserve" y="31.296875">BASIC 'DO' BLOCK<y:LabelModel><y:SmartNodeLabelModel distance="4.0"/></y:LabelModel><y:ModelParameter><y:SmartNodeLabelModelParameter labelRatioX="0.0" labelRatioY="0.0" nodeRatioX="0.0" nodeRatioY="0.0" offsetX="0.0" offsetY="0.0" upX="0.0" upY="-1.0"/></y:ModelParameter></y:NodeLabel>
            </y:GenericNode>
          </data>
        </node>
        <node id="n1::n3">
          <data key="d6">
            <y:GenericNode configuration="com.yworks.flowchart.process">
              <y:Geometry height="80.0" width="200.0" x="437.0" y="217.0"/>
              <y:Fill color="#FFFFFF" color2="#FFFFFF" transparent="false"/>
              <y:BorderStyle color="#000000" type="line" width="2.0"/>
              <y:NodeLabel alignment="center" autoSizePolicy="content" fontFamily="Arial" fontSize="12" fontStyle="plain" hasBackgroundColor="false" hasLineColor="false" height="17.40625" horizontalTextPosition="center" iconTextGap="4" modelName="custom" textColor="#000000" verticalTextPosition="bottom" visible="true" width="109.943359375" x="45.0283203125" xml:space="preserve" y="31.296875">BASIC 'DO' BLOCK<y:LabelModel><y:SmartNodeLabelModel distance="4.0"/></y:LabelModel><y:ModelParameter><y:SmartNodeLabelModelParameter labelRatioX="0.0" labelRatioY="0.0" nodeRatioX="0.0" nodeRatioY="0.0" offsetX="0.0" offsetY="0.0" upX="0.0" upY="-1.0"/></y:ModelParameter></y:NodeLabel>
            </y:GenericNode>
          </data>
        </node>
      </graph>
    </node>
    <node id="n2">
      <data key="d6">
        <y:GenericNode configuration="com.yworks.flowchart.process">
          <y:Geometry height="80.0" width="207.0" x="1814.2687500000002" y="-32.66250000000025"/>
          <y:Fill color="#FFFFFF" color2="#FFFFFF" transparent="false"/>
          <y:BorderStyle color="#000000" type="line" width="2.0"/>
          <y:NodeLabel alignment="center" autoSizePolicy="node_height" fontFamily="Arial" fontSize="12" fontStyle="plain" hasBackgroundColor="false" hasLineColor="false" height="80.0" horizontalTextPosition="center" iconTextGap="4" modelName="custom" textColor="#000000" verticalTextPosition="bottom" visible="true" width="38.669921875" x="84.1650390625" xml:space="preserve" y="0.0">NODE<y:LabelModel><y:SmartNodeLabelModel distance="4.0"/></y:LabelModel><y:ModelParameter><y:SmartNodeLabelModelParameter labelRatioX="0.0" labelRatioY="0.0" nodeRatioX="0.0" nodeRatioY="0.0" offsetX="0.0" offsetY="0.0" upX="0.0" upY="-1.0"/></y:ModelParameter></y:NodeLabel>
        </y:GenericNode>
      </data>
    </node>
    <node id="n3">
      <data key="d6">
        <y:GenericNode configuration="com.yworks.flowchart.process">
          <y:Geometry height="43.0" width="69.0" x="1883.2687500000002" y="4.33749999999975"/>
          <y:Fill color="#FFFFFF" color2="#FFFFFF" transparent="false"/>
          <y:BorderStyle color="#000000" type="line" width="2.0"/>
          <y:NodeLabel alignment="center" autoSizePolicy="content" fontFamily="Arial" fontSize="12" fontStyle="plain" hasBackgroundColor="false" hasLineColor="false" height="17.40625" horizontalTextPosition="center" iconTextGap="4" modelName="custom" textColor="#000000" verticalTextPosition="bottom" visible="true" width="17.34765625" x="25.826171875" xml:space="preserve" y="12.796875">15<y:LabelModel><y:SmartNodeLabelModel distance="4.0"/></y:LabelModel><y:ModelParameter><y:SmartNodeLabelModelParameter labelRatioX="0.0" labelRatioY="0.0" nodeRatioX="0.0" nodeRatioY="0.0" offsetX="0.0" offsetY="0.0" upX="0.0" upY="-1.0"/></y:ModelParameter></y:NodeLabel>
        </y:GenericNode>
      </data>
    </node>
    <node id="n4">
      <data key="d6">
        <y:GenericNode configuration="com.yworks.flowchart.process">
          <y:Geometry height="43.0" width="69.0" x="1814.2687500000002" y="4.33749999999975"/>
          <y:Fill color="#FFFFFF" color2="#FFFFFF" transparent="false"/>
          <y:BorderStyle color="#000000" type="line" width="2.0"/>
          <y:NodeLabel alignment="center" autoSizePolicy="content" fontFamily="Arial" fontSize="12" fontStyle="plain" hasBackgroundColor="false" hasLineColor="false" height="17.40625" horizontalTextPosition="center" iconTextGap="4" modelName="custom" textColor="#000000" verticalTextPosition="bottom" visible="true" width="33.337890625" x="17.8310546875" xml:space="preserve" y="12.796875">LEFT<y:LabelModel><y:SmartNodeLabelModel distance="4.0"/></y:LabelModel><y:ModelParameter><y:SmartNodeLabelModelParameter labelRatioX="0.0" labelRatioY="0.0" nodeRatioX="0.0" nodeRatioY="0.0" offsetX="0.0" offsetY="0.0" upX="0.0" upY="-1.0"/></y:ModelParameter></y:NodeLabel>
        </y:GenericNode>
      </data>
    </node>
    <node id="n5">
      <data key="d6">
        <y:GenericNode configuration="com.yworks.flowchart.process">
          <y:Geometry height="43.0" width="69.0" x="1952.2687500000002" y="4.33749999999975"/>
          <y:Fill color="#FFFFFF" color2="#FFFFFF" transparent="false"/>
          <y:BorderStyle color="#000000" type="line" width="2.0"/>
          <y:NodeLabel alignment="center" autoSizePolicy="content" fontFamily="Arial" fontSize="12" fontStyle="plain" hasBackgroundColor="false" hasLineColor="false" height="17.40625" horizontalTextPosition="center" iconTextGap="4" modelName="custom" textColor="#000000" verticalTextPosition="bottom" visible="true" width="41.330078125" x="13.8349609375" xml:space="preserve" y="12.796875">RIGHT<y:LabelModel><y:SmartNodeLabelModel distance="4.0"/></y:LabelModel><y:ModelParameter><y:SmartNodeLabelModelParameter labelRatioX="0.0" labelRatioY="0.0" nodeRatioX="0.0" nodeRatioY="0.0" offsetX="0.0" offsetY="0.0" upX="0.0" upY="-1.0"/></y:ModelParameter></y:NodeLabel>
        </y:GenericNode>
      </data>
    </node>
    <node id="n6">
      <data key="d6">
        <y:GenericNode configuration="com.yworks.flowchart.process">
          <y:Geometry height="80.0" width="207.0" x="1632.8175000000003" y="139.8749999999995"/>
          <y:Fill color="#FFFFFF" color2="#FFFFFF" transparent="false"/>
          <y:BorderStyle color="#000000" type="line" width="2.0"/>
          <y:NodeLabel alignment="center" autoSizePolicy="node_height" fontFamily="Arial" fontSize="12" fontStyle="plain" hasBackgroundColor="false" hasLineColor="false" height="80.0" horizontalTextPosition="center" iconTextGap="4" modelName="custom" textColor="#000000" verticalTextPosition="bottom" visible="true" width="38.669921875" x="84.1650390625" xml:space="preserve" y="0.0">NODE<y:LabelModel><y:SmartNodeLabelModel distance="4.0"/></y:LabelModel><y:ModelParameter><y:SmartNodeLabelModelParameter labelRatioX="0.0" labelRatioY="0.0" nodeRatioX="0.0" nodeRatioY="0.0" offsetX="0.0" offsetY="0.0" upX="0.0" upY="-1.0"/></y:ModelParameter></y:NodeLabel>
        </y:GenericNode>
      </data>
    </node>
    <node id="n7">
      <data key="d6">
        <y:GenericNode configuration="com.yworks.flowchart.process">
          <y:Geometry height="43.0" width="69.0" x="1701.8175000000003" y="176.8749999999995"/>
          <y:Fill color="#FFFFFF" color2="#FFFFFF" transparent="false"/>
          <y:BorderStyle color="#000000" type="line" width="2.0"/>
          <y:NodeLabel alignment="center" autoSizePolicy="content" fontFamily="Arial" fontSize="12" fontStyle="plain" hasBackgroundColor="false" hasLineColor="false" height="17.40625" horizontalTextPosition="center" iconTextGap="4" modelName="custom" textColor="#000000" verticalTextPosition="bottom" visible="true" width="10.673828125" x="29.1630859375" xml:space="preserve" y="12.796875">4<y:LabelModel><y:SmartNodeLabelModel distance="4.0"/></y:LabelModel><y:ModelParameter><y:SmartNodeLabelModelParameter labelRatioX="0.0" labelRatioY="0.0" nodeRatioX="0.0" nodeRatioY="0.0" offsetX="0.0" offsetY="0.0" upX="0.0" upY="-1.0"/></y:ModelParameter></y:NodeLabel>
        </y:GenericNode>
      </data>
    </node>
    <node id="n8">
      <data key="d6">
        <y:GenericNode configuration="com.yworks.flowchart.process">
          <y:Geometry height="43.0" width="69.0" x="1632.8175000000003" y="176.8749999999995"/>
          <y:Fill color="#FFFFFF" color2="#FFFFFF" transparent="false"/>
          <y:BorderStyle color="#000000" type="line" width="2.0"/>
          <y:NodeLabel alignment="center" autoSizePolicy="content" fontFamily="Arial" fontSize="12" fontStyle="plain" hasBackgroundColor="false" hasLineColor="false" height="17.40625" horizontalTextPosition="center" iconTextGap="4" modelName="custom" textColor="#000000" verticalTextPosition="bottom" visible="true" width="33.337890625" x="17.8310546875" xml:space="preserve" y="12.796875">LEFT<y:LabelModel><y:SmartNodeLabelModel distance="4.0"/></y:LabelModel><y:ModelParameter><y:SmartNodeLabelModelParameter labelRatioX="0.0" labelRatioY="0.0" nodeRatioX="0.0" nodeRatioY="0.0" offsetX="0.0" offsetY="0.0" upX="0.0" upY="-1.0"/></y:ModelParameter></y:NodeLabel>
        </y:GenericNode>
      </data>
    </node>
    <node id="n9">
      <data key="d6">
        <y:GenericNode configuration="com.yworks.flowchart.process">
          <y:Geometry height="43.0" width="69.0" x="1770.8175000000003" y="176.8749999999995"/>
          <y:Fill color="#FFFFFF" color2="#FFFFFF" transparent="false"/>
          <y:BorderStyle color="#000000" type="line" width="2.0"/>
          <y:NodeLabel alignment="center" autoSizePolicy="content" fontFamily="Arial" fontSize="12" fontStyle="plain" hasBackgroundColor="false" hasLineColor="false" height="17.40625" horizontalTextPosition="center" iconTextGap="4" modelName="custom" textColor="#000000" verticalTextPosition="bottom" visible="true" width="41.330078125" x="13.8349609375" xml:space="preserve" y="12.796875">RIGHT<y:LabelModel><y:SmartNodeLabelModel distance="4.0"/></y:LabelModel><y:ModelParameter><y:SmartNodeLabelModelParameter labelRatioX="0.0" labelRatioY="0.0" nodeRatioX="0.0" nodeRatioY="0.0" offsetX="0.0" offsetY="0.0" upX="0.0" upY="-1.0"/></y:ModelParameter></y:NodeLabel>
        </y:GenericNode>
      </data>
    </node>
    <node id="n10">
      <data key="d6">
        <y:GenericNode configuration="com.yworks.flowchart.onPageReference">
          <y:Geometry height="10.0" width="10.0" x="1661.8175000000003" y="249.8749999999995"/>
          <y:Fill color="#000000" color2="#000000" transparent="false"/>
          <y:BorderStyle color="#000000" type="line" width="2.0"/>
          <y:NodeLabel alignment="center" autoSizePolicy="content" fontFamily="Dialog" fontSize="12" fontStyle="plain" hasBackgroundColor="false" hasLineColor="false" hasText="false" height="4.0" horizontalTextPosition="center" iconTextGap="4" modelName="custom" textColor="#000000" verticalTextPosition="bottom" visible="true" width="4.0" x="3.0" y="3.0">
            <y:LabelModel>
              <y:SmartNodeLabelModel distance="4.0"/>
            </y:LabelModel>
            <y:ModelParameter>
              <y:SmartNodeLabelModelParameter labelRatioX="0.0" labelRatioY="0.0" nodeRatioX="0.0" nodeRatioY="0.0" offsetX="0.0" offsetY="0.0" upX="0.0" upY="-1.0"/>
            </y:ModelParameter>
          </y:NodeLabel>
          <y:NodeLabel alignment="center" autoSizePolicy="content" fontFamily="Dialog" fontSize="12" fontStyle="plain" hasBackgroundColor="false" hasLineColor="false" hasText="false" height="4.0" horizontalTextPosition="center" iconTextGap="4" modelName="custom" textColor="#000000" verticalTextPosition="bottom" visible="true" width="4.0" x="3.0" y="14.0">
            <y:LabelModel>
              <y:SmartNodeLabelModel distance="4.0"/>
            </y:LabelModel>
            <y:ModelParameter>
              <y:SmartNodeLabelModelParameter labelRatioX="0.0" labelRatioY="-0.5" nodeRatioX="0.0" nodeRatioY="0.5" offsetX="0.0" offsetY="4.0" upX="0.0" upY="-1.0"/>
            </y:ModelParameter>
          </y:NodeLabel>
        </y:GenericNode>
      </data>
    </node>
    <node id="n11">
      <data key="d6">
        <y:GenericNode configuration="com.yworks.flowchart.process">
          <y:Geometry height="80.0" width="207.0" x="1823.8062500000005" y="343.01249999999925"/>
          <y:Fill color="#FFFFFF" color2="#FFFFFF" transparent="false"/>
          <y:BorderStyle color="#000000" type="line" width="2.0"/>
          <y:NodeLabel alignment="center" autoSizePolicy="node_height" fontFamily="Arial" fontSize="12" fontStyle="plain" hasBackgroundColor="false" hasLineColor="false" height="80.0" horizontalTextPosition="center" iconTextGap="4" modelName="custom" textColor="#000000" verticalTextPosition="bottom" visible="true" width="38.669921875" x="84.1650390625" xml:space="preserve" y="0.0">NODE<y:LabelModel><y:SmartNodeLabelModel distance="4.0"/></y:LabelModel><y:ModelParameter><y:SmartNodeLabelModelParameter labelRatioX="0.0" labelRatioY="0.0" nodeRatioX="0.0" nodeRatioY="0.0" offsetX="0.0" offsetY="0.0" upX="0.0" upY="-1.0"/></y:ModelParameter></y:NodeLabel>
        </y:GenericNode>
      </data>
    </node>
    <node id="n12">
      <data key="d6">
        <y:GenericNode configuration="com.yworks.flowchart.process">
          <y:Geometry height="43.0" width="69.0" x="1892.8062500000005" y="380.01249999999925"/>
          <y:Fill color="#FFFFFF" color2="#FFFFFF" transparent="false"/>
          <y:BorderStyle color="#000000" type="line" width="2.0"/>
          <y:NodeLabel alignment="center" autoSizePolicy="content" fontFamily="Arial" fontSize="12" fontStyle="plain" hasBackgroundColor="false" hasLineColor="false" height="17.40625" horizontalTextPosition="center" iconTextGap="4" modelName="custom" textColor="#000000" verticalTextPosition="bottom" visible="true" width="10.673828125" x="29.1630859375" xml:space="preserve" y="12.796875">5<y:LabelModel><y:SmartNodeLabelModel distance="4.0"/></y:LabelModel><y:ModelParameter><y:SmartNodeLabelModelParameter labelRatioX="0.0" labelRatioY="0.0" nodeRatioX="0.0" nodeRatioY="0.0" offsetX="0.0" offsetY="0.0" upX="0.0" upY="-1.0"/></y:ModelParameter></y:NodeLabel>
        </y:GenericNode>
      </data>
    </node>
    <node id="n13">
      <data key="d6">
        <y:GenericNode configuration="com.yworks.flowchart.process">
          <y:Geometry height="43.0" width="69.0" x="1823.8062500000005" y="380.01249999999925"/>
          <y:Fill color="#FFFFFF" color2="#FFFFFF" transparent="false"/>
          <y:BorderStyle color="#000000" type="line" width="2.0"/>
          <y:NodeLabel alignment="center" autoSizePolicy="content" fontFamily="Arial" fontSize="12" fontStyle="plain" hasBackgroundColor="false" hasLineColor="false" height="17.40625" horizontalTextPosition="center" iconTextGap="4" modelName="custom" textColor="#000000" verticalTextPosition="bottom" visible="true" width="33.337890625" x="17.8310546875" xml:space="preserve" y="12.796875">LEFT<y:LabelModel><y:SmartNodeLabelModel distance="4.0"/></y:LabelModel><y:ModelParameter><y:SmartNodeLabelModelParameter labelRatioX="0.0" labelRatioY="0.0" nodeRatioX="0.0" nodeRatioY="0.0" offsetX="0.0" offsetY="0.0" upX="0.0" upY="-1.0"/></y:ModelParameter></y:NodeLabel>
        </y:GenericNode>
      </data>
    </node>
    <node id="n14">
      <data key="d6">
        <y:GenericNode configuration="com.yworks.flowchart.process">
          <y:Geometry height="43.0" width="69.0" x="1961.8062500000005" y="380.01249999999925"/>
          <y:Fill color="#FFFFFF" color2="#FFFFFF" transparent="false"/>
          <y:BorderStyle color="#000000" type="line" width="2.0"/>
          <y:NodeLabel alignment="center" autoSizePolicy="content" fontFamily="Arial" fontSize="12" fontStyle="plain" hasBackgroundColor="false" hasLineColor="false" height="17.40625" horizontalTextPosition="center" iconTextGap="4" modelName="custom" textColor="#000000" verticalTextPosition="bottom" visible="true" width="41.330078125" x="13.8349609375" xml:space="preserve" y="12.796875">RIGHT<y:LabelModel><y:SmartNodeLabelModel distance="4.0"/></y:LabelModel><y:ModelParameter><y:SmartNodeLabelModelParameter labelRatioX="0.0" labelRatioY="0.0" nodeRatioX="0.0" nodeRatioY="0.0" offsetX="0.0" offsetY="0.0" upX="0.0" upY="-1.0"/></y:ModelParameter></y:NodeLabel>
        </y:GenericNode>
      </data>
    </node>
    <node id="n15">
      <data key="d6">
        <y:GenericNode configuration="com.yworks.flowchart.onPageReference">
          <y:Geometry height="10.0" width="10.0" x="1852.8062500000005" y="453.01249999999925"/>
          <y:Fill color="#000000" color2="#000000" transparent="false"/>
          <y:BorderStyle color="#000000" type="line" width="2.0"/>
          <y:NodeLabel alignment="center" autoSizePolicy="content" fontFamily="Dialog" fontSize="12" fontStyle="plain" hasBackgroundColor="false" hasLineColor="false" hasText="false" height="4.0" horizontalTextPosition="center" iconTextGap="4" modelName="custom" textColor="#000000" verticalTextPosition="bottom" visible="true" width="4.0" x="3.0" y="3.0">
            <y:LabelModel>
              <y:SmartNodeLabelModel distance="4.0"/>
            </y:LabelModel>
            <y:ModelParameter>
              <y:SmartNodeLabelModelParameter labelRatioX="0.0" labelRatioY="0.0" nodeRatioX="0.0" nodeRatioY="0.0" offsetX="0.0" offsetY="0.0" upX="0.0" upY="-1.0"/>
            </y:ModelParameter>
          </y:NodeLabel>
          <y:NodeLabel alignment="center" autoSizePolicy="content" fontFamily="Dialog" fontSize="12" fontStyle="plain" hasBackgroundColor="false" hasLineColor="false" hasText="false" height="4.0" horizontalTextPosition="center" iconTextGap="4" modelName="custom" textColor="#000000" verticalTextPosition="bottom" visible="true" width="4.0" x="3.0" y="14.0">
            <y:LabelModel>
              <y:SmartNodeLabelModel distance="4.0"/>
            </y:LabelModel>
            <y:ModelParameter>
              <y:SmartNodeLabelModelParameter labelRatioX="0.0" labelRatioY="-0.5" nodeRatioX="0.0" nodeRatioY="0.5" offsetX="0.0" offsetY="4.0" upX="0.0" upY="-1.0"/>
            </y:ModelParameter>
          </y:NodeLabel>
        </y:GenericNode>
      </data>
    </node>
    <node id="n16">
      <data key="d6">
        <y:GenericNode configuration="com.yworks.flowchart.process">
          <y:Geometry height="80.0" width="207.0" x="2079.6350000000007" y="147.6749999999995"/>
          <y:Fill color="#FFFFFF" color2="#FFFFFF" transparent="false"/>
          <y:BorderStyle color="#000000" type="line" width="2.0"/>
          <y:NodeLabel alignment="center" autoSizePolicy="node_height" fontFamily="Arial" fontSize="12" fontStyle="plain" hasBackgroundColor="false" hasLineColor="false" height="80.0" horizontalTextPosition="center" iconTextGap="4" modelName="custom" textColor="#000000" verticalTextPosition="bottom" visible="true" width="38.669921875" x="84.1650390625" xml:space="preserve" y="0.0">NODE<y:LabelModel><y:SmartNodeLabelModel distance="4.0"/></y:LabelModel><y:ModelParameter><y:SmartNodeLabelModelParameter labelRatioX="0.0" labelRatioY="0.0" nodeRatioX="0.0" nodeRatioY="0.0" offsetX="0.0" offsetY="0.0" upX="0.0" upY="-1.0"/></y:ModelParameter></y:NodeLabel>
        </y:GenericNode>
      </data>
    </node>
    <node id="n17">
      <data key="d6">
        <y:GenericNode configuration="com.yworks.flowchart.process">
          <y:Geometry height="43.0" width="69.0" x="2148.6350000000007" y="184.6749999999995"/>
          <y:Fill color="#FFFFFF" color2="#FFFFFF" transparent="false"/>
          <y:BorderStyle color="#000000" type="line" width="2.0"/>
          <y:NodeLabel alignment="center" autoSizePolicy="content" fontFamily="Arial" fontSize="12" fontStyle="plain" hasBackgroundColor="false" hasLineColor="false" height="17.40625" horizontalTextPosition="center" iconTextGap="4" modelName="custom" textColor="#000000" verticalTextPosition="bottom" visible="true" width="17.34765625" x="25.826171875" xml:space="preserve" y="12.796875">20<y:LabelModel><y:SmartNodeLabelModel distance="4.0"/></y:LabelModel><y:ModelParameter><y:SmartNodeLabelModelParameter labelRatioX="0.0" labelRatioY="0.0" nodeRatioX="0.0" nodeRatioY="0.0" offsetX="0.0" offsetY="0.0" upX="0.0" upY="-1.0"/></y:ModelParameter></y:NodeLabel>
        </y:GenericNode>
      </data>
    </node>
    <node id="n18">
      <data key="d6">
        <y:GenericNode configuration="com.yworks.flowchart.process">
          <y:Geometry height="43.0" width="69.0" x="2079.6350000000007" y="184.6749999999995"/>
          <y:Fill color="#FFFFFF" color2="#FFFFFF" transparent="false"/>
          <y:BorderStyle color="#000000" type="line" width="2.0"/>
          <y:NodeLabel alignment="center" autoSizePolicy="content" fontFamily="Arial" fontSize="12" fontStyle="plain" hasBackgroundColor="false" hasLineColor="false" height="17.40625" horizontalTextPosition="center" iconTextGap="4" modelName="custom" textColor="#000000" verticalTextPosition="bottom" visible="true" width="33.337890625" x="17.8310546875" xml:space="preserve" y="12.796875">LEFT<y:LabelModel><y:SmartNodeLabelModel distance="4.0"/></y:LabelModel><y:ModelParameter><y:SmartNodeLabelModelParameter labelRatioX="0.0" labelRatioY="0.0" nodeRatioX="0.0" nodeRatioY="0.0" offsetX="0.0" offsetY="0.0" upX="0.0" upY="-1.0"/></y:ModelParameter></y:NodeLabel>
        </y:GenericNode>
      </data>
    </node>
    <node id="n19">
      <data key="d6">
        <y:GenericNode configuration="com.yworks.flowchart.process">
          <y:Geometry height="43.0" width="69.0" x="2217.6350000000007" y="184.6749999999995"/>
          <y:Fill color="#FFFFFF" color2="#FFFFFF" transparent="false"/>
          <y:BorderStyle color="#000000" type="line" width="2.0"/>
          <y:NodeLabel alignment="center" autoSizePolicy="content" fontFamily="Arial" fontSize="12" fontStyle="plain" hasBackgroundColor="false" hasLineColor="false" height="17.40625" horizontalTextPosition="center" iconTextGap="4" modelName="custom" textColor="#000000" verticalTextPosition="bottom" visible="true" width="41.330078125" x="13.8349609375" xml:space="preserve" y="12.796875">RIGHT<y:LabelModel><y:SmartNodeLabelModel distance="4.0"/></y:LabelModel><y:ModelParameter><y:SmartNodeLabelModelParameter labelRatioX="0.0" labelRatioY="0.0" nodeRatioX="0.0" nodeRatioY="0.0" offsetX="0.0" offsetY="0.0" upX="0.0" upY="-1.0"/></y:ModelParameter></y:NodeLabel>
        </y:GenericNode>
      </data>
    </node>
    <node id="n20">
      <data key="d6">
        <y:GenericNode configuration="com.yworks.flowchart.onPageReference">
          <y:Geometry height="10.0" width="10.0" x="2108.6350000000007" y="257.6749999999995"/>
          <y:Fill color="#000000" color2="#000000" transparent="false"/>
          <y:BorderStyle color="#000000" type="line" width="2.0"/>
          <y:NodeLabel alignment="center" autoSizePolicy="content" fontFamily="Dialog" fontSize="12" fontStyle="plain" hasBackgroundColor="false" hasLineColor="false" hasText="false" height="4.0" horizontalTextPosition="center" iconTextGap="4" modelName="custom" textColor="#000000" verticalTextPosition="bottom" visible="true" width="4.0" x="3.0" y="3.0">
            <y:LabelModel>
              <y:SmartNodeLabelModel distance="4.0"/>
            </y:LabelModel>
            <y:ModelParameter>
              <y:SmartNodeLabelModelParameter labelRatioX="0.0" labelRatioY="0.0" nodeRatioX="0.0" nodeRatioY="0.0" offsetX="0.0" offsetY="0.0" upX="0.0" upY="-1.0"/>
            </y:ModelParameter>
          </y:NodeLabel>
          <y:NodeLabel alignment="center" autoSizePolicy="content" fontFamily="Dialog" fontSize="12" fontStyle="plain" hasBackgroundColor="false" hasLineColor="false" hasText="false" height="4.0" horizontalTextPosition="center" iconTextGap="4" modelName="custom" textColor="#000000" verticalTextPosition="bottom" visible="true" width="4.0" x="3.0" y="14.0">
            <y:LabelModel>
              <y:SmartNodeLabelModel distance="4.0"/>
            </y:LabelModel>
            <y:ModelParameter>
              <y:SmartNodeLabelModelParameter labelRatioX="0.0" labelRatioY="-0.5" nodeRatioX="0.0" nodeRatioY="0.5" offsetX="0.0" offsetY="4.0" upX="0.0" upY="-1.0"/>
            </y:ModelParameter>
          </y:NodeLabel>
        </y:GenericNode>
      </data>
    </node>
    <node id="n21">
      <data key="d6">
        <y:GenericNode configuration="com.yworks.flowchart.onPageReference">
          <y:Geometry height="10.0" width="10.0" x="2247.1350000000007" y="257.6749999999995"/>
          <y:Fill color="#000000" color2="#000000" transparent="false"/>
          <y:BorderStyle color="#000000" type="line" width="2.0"/>
          <y:NodeLabel alignment="center" autoSizePolicy="content" fontFamily="Dialog" fontSize="12" fontStyle="plain" hasBackgroundColor="false" hasLineColor="false" hasText="false" height="4.0" horizontalTextPosition="center" iconTextGap="4" modelName="custom" textColor="#000000" verticalTextPosition="bottom" visible="true" width="4.0" x="3.0" y="3.0">
            <y:LabelModel>
              <y:SmartNodeLabelModel distance="4.0"/>
            </y:LabelModel>
            <y:ModelParameter>
              <y:SmartNodeLabelModelParameter labelRatioX="0.0" labelRatioY="0.0" nodeRatioX="0.0" nodeRatioY="0.0" offsetX="0.0" offsetY="0.0" upX="0.0" upY="-1.0"/>
            </y:ModelParameter>
          </y:NodeLabel>
          <y:NodeLabel alignment="center" autoSizePolicy="content" fontFamily="Dialog" fontSize="12" fontStyle="plain" hasBackgroundColor="false" hasLineColor="false" hasText="false" height="4.0" horizontalTextPosition="center" iconTextGap="4" modelName="custom" textColor="#000000" verticalTextPosition="bottom" visible="true" width="4.0" x="3.0" y="14.0">
            <y:LabelModel>
              <y:SmartNodeLabelModel distance="4.0"/>
            </y:LabelModel>
            <y:ModelParameter>
              <y:SmartNodeLabelModelParameter labelRatioX="0.0" labelRatioY="-0.5" nodeRatioX="0.0" nodeRatioY="0.5" offsetX="0.0" offsetY="4.0" upX="0.0" upY="-1.0"/>
            </y:ModelParameter>
          </y:NodeLabel>
        </y:GenericNode>
      </data>
    </node>
    <node id="n22">
      <data key="d6">
        <y:GenericNode configuration="com.yworks.flowchart.process">
          <y:Geometry height="80.0" width="207.0" x="2039.6350000000007" y="501.7374999999998"/>
          <y:Fill color="#FFFFFF" color2="#FFFFFF" transparent="false"/>
          <y:BorderStyle color="#000000" type="line" width="2.0"/>
          <y:NodeLabel alignment="center" autoSizePolicy="node_height" fontFamily="Arial" fontSize="12" fontStyle="plain" hasBackgroundColor="false" hasLineColor="false" height="80.0" horizontalTextPosition="center" iconTextGap="4" modelName="custom" textColor="#000000" verticalTextPosition="bottom" visible="true" width="38.669921875" x="84.1650390625" xml:space="preserve" y="0.0">NODE<y:LabelModel><y:SmartNodeLabelModel distance="4.0"/></y:LabelModel><y:ModelParameter><y:SmartNodeLabelModelParameter labelRatioX="0.0" labelRatioY="0.0" nodeRatioX="0.0" nodeRatioY="0.0" offsetX="0.0" offsetY="0.0" upX="0.0" upY="-1.0"/></y:ModelParameter></y:NodeLabel>
        </y:GenericNode>
      </data>
    </node>
    <node id="n23">
      <data key="d6">
        <y:GenericNode configuration="com.yworks.flowchart.process">
          <y:Geometry height="43.0" width="69.0" x="2108.6350000000007" y="538.7374999999997"/>
          <y:Fill color="#FFFFFF" color2="#FFFFFF" transparent="false"/>
          <y:BorderStyle color="#000000" type="line" width="2.0"/>
          <y:NodeLabel alignment="center" autoSizePolicy="content" fontFamily="Arial" fontSize="12" fontStyle="plain" hasBackgroundColor="false" hasLineColor="false" height="17.40625" horizontalTextPosition="center" iconTextGap="4" modelName="custom" textColor="#000000" verticalTextPosition="bottom" visible="true" width="17.34765625" x="25.826171875" xml:space="preserve" y="12.796875">13<y:LabelModel><y:SmartNodeLabelModel distance="4.0"/></y:LabelModel><y:ModelParameter><y:SmartNodeLabelModelParameter labelRatioX="0.0" labelRatioY="0.0" nodeRatioX="0.0" nodeRatioY="0.0" offsetX="0.0" offsetY="0.0" upX="0.0" upY="-1.0"/></y:ModelParameter></y:NodeLabel>
        </y:GenericNode>
      </data>
    </node>
    <node id="n24">
      <data key="d6">
        <y:GenericNode configuration="com.yworks.flowchart.process">
          <y:Geometry height="43.0" width="69.0" x="2039.6350000000007" y="538.7374999999997"/>
          <y:Fill color="#FFFFFF" color2="#FFFFFF" transparent="false"/>
          <y:BorderStyle color="#000000" type="line" width="2.0"/>
          <y:NodeLabel alignment="center" autoSizePolicy="content" fontFamily="Arial" fontSize="12" fontStyle="plain" hasBackgroundColor="false" hasLineColor="false" height="17.40625" horizontalTextPosition="center" iconTextGap="4" modelName="custom" textColor="#000000" verticalTextPosition="bottom" visible="true" width="33.337890625" x="17.8310546875" xml:space="preserve" y="12.796875">LEFT<y:LabelModel><y:SmartNodeLabelModel distance="4.0"/></y:LabelModel><y:ModelParameter><y:SmartNodeLabelModelParameter labelRatioX="0.0" labelRatioY="0.0" nodeRatioX="0.0" nodeRatioY="0.0" offsetX="0.0" offsetY="0.0" upX="0.0" upY="-1.0"/></y:ModelParameter></y:NodeLabel>
        </y:GenericNode>
      </data>
    </node>
    <node id="n25">
      <data key="d6">
        <y:GenericNode configuration="com.yworks.flowchart.process">
          <y:Geometry height="43.0" width="69.0" x="2177.6350000000007" y="538.7374999999997"/>
          <y:Fill color="#FFFFFF" color2="#FFFFFF" transparent="false"/>
          <y:BorderStyle color="#000000" type="line" width="2.0"/>
          <y:NodeLabel alignment="center" autoSizePolicy="content" fontFamily="Arial" fontSize="12" fontStyle="plain" hasBackgroundColor="false" hasLineColor="false" height="17.40625" horizontalTextPosition="center" iconTextGap="4" modelName="custom" textColor="#000000" verticalTextPosition="bottom" visible="true" width="41.330078125" x="13.8349609375" xml:space="preserve" y="12.796875">RIGHT<y:LabelModel><y:SmartNodeLabelModel distance="4.0"/></y:LabelModel><y:ModelParameter><y:SmartNodeLabelModelParameter labelRatioX="0.0" labelRatioY="0.0" nodeRatioX="0.0" nodeRatioY="0.0" offsetX="0.0" offsetY="0.0" upX="0.0" upY="-1.0"/></y:ModelParameter></y:NodeLabel>
        </y:GenericNode>
      </data>
    </node>
    <node id="n26">
      <data key="d6">
        <y:GenericNode configuration="com.yworks.flowchart.onPageReference">
          <y:Geometry height="10.0" width="10.0" x="2068.6350000000007" y="611.7374999999997"/>
          <y:Fill color="#000000" color2="#000000" transparent="false"/>
          <y:BorderStyle color="#000000" type="line" width="2.0"/>
          <y:NodeLabel alignment="center" autoSizePolicy="content" fontFamily="Dialog" fontSize="12" fontStyle="plain" hasBackgroundColor="false" hasLineColor="false" hasText="false" height="4.0" horizontalTextPosition="center" iconTextGap="4" modelName="custom" textColor="#000000" verticalTextPosition="bottom" visible="true" width="4.0" x="3.0" y="3.0">
            <y:LabelModel>
              <y:SmartNodeLabelModel distance="4.0"/>
            </y:LabelModel>
            <y:ModelParameter>
              <y:SmartNodeLabelModelParameter labelRatioX="0.0" labelRatioY="0.0" nodeRatioX="0.0" nodeRatioY="0.0" offsetX="0.0" offsetY="0.0" upX="0.0" upY="-1.0"/>
            </y:ModelParameter>
          </y:NodeLabel>
          <y:NodeLabel alignment="center" autoSizePolicy="content" fontFamily="Dialog" fontSize="12" fontStyle="plain" hasBackgroundColor="false" hasLineColor="false" hasText="false" height="4.0" horizontalTextPosition="center" iconTextGap="4" modelName="custom" textColor="#000000" verticalTextPosition="bottom" visible="true" width="4.0" x="3.0" y="14.0">
            <y:LabelModel>
              <y:SmartNodeLabelModel distance="4.0"/>
            </y:LabelModel>
            <y:ModelParameter>
              <y:SmartNodeLabelModelParameter labelRatioX="0.0" labelRatioY="-0.5" nodeRatioX="0.0" nodeRatioY="0.5" offsetX="0.0" offsetY="4.0" upX="0.0" upY="-1.0"/>
            </y:ModelParameter>
          </y:NodeLabel>
        </y:GenericNode>
      </data>
    </node>
    <node id="n27">
      <data key="d6">
        <y:GenericNode configuration="com.yworks.flowchart.onPageReference">
          <y:Geometry height="10.0" width="10.0" x="2207.1350000000007" y="611.7374999999997"/>
          <y:Fill color="#000000" color2="#000000" transparent="false"/>
          <y:BorderStyle color="#000000" type="line" width="2.0"/>
          <y:NodeLabel alignment="center" autoSizePolicy="content" fontFamily="Dialog" fontSize="12" fontStyle="plain" hasBackgroundColor="false" hasLineColor="false" hasText="false" height="4.0" horizontalTextPosition="center" iconTextGap="4" modelName="custom" textColor="#000000" verticalTextPosition="bottom" visible="true" width="4.0" x="3.0" y="3.0">
            <y:LabelModel>
              <y:SmartNodeLabelModel distance="4.0"/>
            </y:LabelModel>
            <y:ModelParameter>
              <y:SmartNodeLabelModelParameter labelRatioX="0.0" labelRatioY="0.0" nodeRatioX="0.0" nodeRatioY="0.0" offsetX="0.0" offsetY="0.0" upX="0.0" upY="-1.0"/>
            </y:ModelParameter>
          </y:NodeLabel>
          <y:NodeLabel alignment="center" autoSizePolicy="content" fontFamily="Dialog" fontSize="12" fontStyle="plain" hasBackgroundColor="false" hasLineColor="false" hasText="false" height="4.0" horizontalTextPosition="center" iconTextGap="4" modelName="custom" textColor="#000000" verticalTextPosition="bottom" visible="true" width="4.0" x="3.0" y="14.0">
            <y:LabelModel>
              <y:SmartNodeLabelModel distance="4.0"/>
            </y:LabelModel>
            <y:ModelParameter>
              <y:SmartNodeLabelModelParameter labelRatioX="0.0" labelRatioY="-0.5" nodeRatioX="0.0" nodeRatioY="0.5" offsetX="0.0" offsetY="4.0" upX="0.0" upY="-1.0"/>
            </y:ModelParameter>
          </y:NodeLabel>
        </y:GenericNode>
      </data>
    </node>
    <edge id="e0" source="n0::n2" target="n1::n2">
      <data key="d10">
        <y:PolyLineEdge>
          <y:Path sx="0.0" sy="0.0" tx="0.0" ty="0.0"/>
          <y:LineStyle color="#000000" type="line" width="2.0"/>
          <y:Arrows source="none" target="delta"/>
          <y:EdgeLabel alignment="center" backgroundColor="#FFFFFF" configuration="AutoFlippingLabel" distance="2.0" fontFamily="Dialog" fontSize="12" fontStyle="plain" hasLineColor="false" height="18.701171875" horizontalTextPosition="center" iconTextGap="4" modelName="custom" preferredPlacement="anywhere" ratio="0.5" textColor="#000000" verticalTextPosition="bottom" visible="true" width="58.01171875" x="-237.03369140625" xml:space="preserve" y="-11.3768310546875">MERGE 1<y:LabelModel><y:SmartEdgeLabelModel autoRotationEnabled="false" defaultAngle="0.0" defaultDistance="10.0"/></y:LabelModel><y:ModelParameter><y:SmartEdgeLabelModelParameter angle="0.0" distance="30.0" distanceToCenter="true" position="center" ratio="0.5" segment="0"/></y:ModelParameter><y:PreferredPlacementDescriptor angle="0.0" angleOffsetOnRightSide="0" angleReference="absolute" angleRotationOnRightSide="co" distance="-1.0" frozen="true" placement="anywhere" side="anywhere" sideReference="relative_to_edge_flow"/></y:EdgeLabel>
          <y:BendStyle smoothed="false"/>
        </y:PolyLineEdge>
      </data>
    </edge>
    <edge id="n1::e0" source="n1::n0" target="n1::n2">
      <data key="d10">
        <y:PolyLineEdge>
          <y:Path sx="0.0" sy="0.0" tx="0.0" ty="0.0"/>
          <y:LineStyle color="#000000" type="line" width="2.0"/>
          <y:Arrows source="none" target="delta"/>
          <y:BendStyle smoothed="false"/>
        </y:PolyLineEdge>
      </data>
    </edge>
    <edge id="e1" source="n4" target="n6">
      <data key="d10">
        <y:PolyLineEdge>
          <y:Path sx="0.0" sy="0.0" tx="5.567249999998694" ty="-26.86549999999977"/>
          <y:LineStyle color="#000000" type="line" width="2.0"/>
          <y:Arrows source="none" target="delta"/>
          <y:BendStyle smoothed="false"/>
        </y:PolyLineEdge>
      </data>
    </edge>
    <edge id="e2" source="n5" target="n16">
      <data key="d10">
        <y:PolyLineEdge>
          <y:Path sx="0.0" sy="0.0" tx="-4.250249999998687" ty="-16.865499999999827"/>
          <y:LineStyle color="#000000" type="line" width="2.0"/>
          <y:Arrows source="none" target="delta"/>
          <y:BendStyle smoothed="false"/>
        </y:PolyLineEdge>
      </data>
    </edge>
    <edge id="e3" source="n8" target="n10">
      <data key="d10">
        <y:PolyLineEdge>
          <y:Path sx="0.0" sy="0.0" tx="0.0" ty="0.0"/>
          <y:LineStyle color="#000000" type="line" width="2.0"/>
          <y:Arrows source="none" target="delta"/>
          <y:BendStyle smoothed="false"/>
        </y:PolyLineEdge>
      </data>
    </edge>
    <edge id="e4" source="n9" target="n11">
      <data key="d10">
        <y:PolyLineEdge>
          <y:Path sx="0.0" sy="0.0" tx="1.5784999999984848" ty="-15.002999999999531"/>
          <y:LineStyle color="#000000" type="line" width="2.0"/>
          <y:Arrows source="none" target="delta"/>
          <y:BendStyle smoothed="false"/>
        </y:PolyLineEdge>
      </data>
    </edge>
    <edge id="e5" source="n13" target="n15">
      <data key="d10">
        <y:PolyLineEdge>
          <y:Path sx="0.0" sy="0.0" tx="0.0" ty="0.0"/>
          <y:LineStyle color="#000000" type="line" width="2.0"/>
          <y:Arrows source="none" target="delta"/>
          <y:BendStyle smoothed="false"/>
        </y:PolyLineEdge>
      </data>
    </edge>
    <edge id="e6" source="n14" target="n22">
      <data key="d10">
        <y:PolyLineEdge>
          <y:Path sx="0.0" sy="0.0" tx="-22.650249999981042" ty="-23.728000000000975"/>
          <y:LineStyle color="#000000" type="line" width="2.0"/>
          <y:Arrows source="none" target="delta"/>
          <y:BendStyle smoothed="false"/>
        </y:PolyLineEdge>
      </data>
    </edge>
    <edge id="e7" source="n18" target="n20">
      <data key="d10">
        <y:PolyLineEdge>
          <y:Path sx="0.0" sy="0.0" tx="0.0" ty="0.0"/>
          <y:LineStyle color="#000000" type="line" width="2.0"/>
          <y:Arrows source="none" target="delta"/>
          <y:BendStyle smoothed="false"/>
        </y:PolyLineEdge>
      </data>
    </edge>
    <edge id="e8" source="n19" target="n21">
      <data key="d10">
        <y:PolyLineEdge>
          <y:Path sx="0.0" sy="0.0" tx="0.0" ty="0.0"/>
          <y:LineStyle color="#000000" type="line" width="2.0"/>
          <y:Arrows source="none" target="delta"/>
          <y:BendStyle smoothed="false"/>
        </y:PolyLineEdge>
      </data>
    </edge>
    <edge id="e9" source="n24" target="n26">
      <data key="d10">
        <y:PolyLineEdge>
          <y:Path sx="0.0" sy="0.0" tx="0.0" ty="0.0"/>
          <y:LineStyle color="#000000" type="line" width="2.0"/>
          <y:Arrows source="none" target="delta"/>
          <y:BendStyle smoothed="false"/>
        </y:PolyLineEdge>
      </data>
    </edge>
    <edge id="e10" source="n25" target="n27">
      <data key="d10">
        <y:PolyLineEdge>
          <y:Path sx="0.0" sy="0.0" tx="0.0" ty="0.0"/>
          <y:LineStyle color="#000000" type="line" width="2.0"/>
          <y:Arrows source="none" target="delta"/>
          <y:BendStyle smoothed="false"/>
        </y:PolyLineEdge>
      </data>
    </edge>
  </graph>
  <data key="d7">
    <y:Resources/>
  </data>
</graphml>
